Name,age,phone_number,company,building_code,address
Mable,32,875.665.5429,Huels Inc,94580,West Bradly
Joany,33,1-863-740-3342,Wiza and Sons,79165,Jacobsfort
Pattie,46,1-380-939-9090,Towne Group,08671,Port Pierce
Brennon,20,1-970-028-3809,Senger Group,837,Abelardoside
Gina,35,770.555.1693,Greenfelder Greenfelder and Greenfelder,0022,Fayville
Jammie,75,1-594-143-0534,Lueilwitz Inc,85161,North Kasey
Vivian,25,366-918-5105,Daugherty Daugherty and Daugherty,81115,Beckerville
Jazmyne,55,1-786-921-3624,Murray and Sons,68760,Roscoeberg
Vernice,42,439-170-2614,Hand Hand and Hand,5379,Kaciview
Alexandra,52,650-834-9401,Jast-Jast,59574,East Ashtyn
Elinore,37,712-416-9339,Wolf Group,989,New Pablo
Halle,42,763.706.1500,Wolff-Wolff,8473,Dickinsonmouth
Kathryne,78,1-561-617-7289,Hamill Group,62510,Port Sigurdshire
Tyrique,42,(958) 983-7175,Greenholt-Greenholt,6127,Bahringershire
Mable,75,619-966-8447,Johns LLC,83550,Maggioville
Yasmeen,26,1-302-535-4478,Kuvalis Kuvalis and Kuvalis,5351,Kerlukestad
Carmelo,48,1-031-098-0754,Ullrich LLC,168,Lake Lindseyport
Noel,74,1-470-732-2446,Ankunding and Sons,27781,Nikolausstad
Llewellyn,54,1-466-085-6958,Bailey-Bailey,21212,Lake Francesville
Charity,62,700.815.2713,Kerluke-Kerluke,27484,East Martinaberg
Earlene,61,1-227-012-1911,Orn-Orn,38550,Furmanmouth
Cody,42,1-353-177-8237,Swaniawski Swaniawski and Swaniawski,019,West Juliana
Darryl,25,352-828-8233,Koepp LLC,5292,North Jack
Alva,37,1-455-445-7590,Rolfson Group,7267,North Sedrickmouth
Arnaldo,72,996.655.3162,Gulgowski Group,6649,Agnestown
Vernie,73,(471) 333-7175,Ortiz-Ortiz,912,West Lowell
Travon,45,251.402.5018,Runolfsdottir-Runolfsdottir,70648,Bahringerberg
Carolanne,73,779.067.4274,Bartell Bartell and Bartell,40493,Giannimouth
Lucy,60,115.150.7639,Weber Inc,1912,Lake Reynachester
Itzel,30,365.199.3530,Vandervort Group,7008,West Ferminside
Hyman,62,821-583-5465,Vandervort Inc,7396,North Lemuel
Cindy,75,935.431.0718,Zemlak-Zemlak,425,North Odell
Josefa,47,427-917-3582,Jerde Jerde and Jerde,3060,Lorenaborough
Adeline,31,311-634-1184,Kutch Group,6777,Port Yasmine
Manuel,35,1-668-230-3499,Hahn and Sons,48101,Darronmouth
Ryder,79,(843) 504-2361,Lesch and Sons,8778,New Isabelmouth
Wilburn,57,062.589.4589,Kautzer-Kautzer,24596,Port Desmond
Vinnie,44,140.195.9658,Collins Collins and Collins,57009,North Elisa
Jose,27,(689) 235-8343,Nolan-Nolan,6585,Port Halberg
Lewis,26,1-626-836-8941,Purdy and Sons,6104,East Ryann
Taya,53,(622) 615-5121,Halvorson Halvorson and Halvorson,883,East Albertoland
Vicky,48,(466) 699-5676,Goyette Group,5426,North Estell
Geovanni,48,(548) 911-0074,Blanda-Blanda,396,New Brockchester
Mohammad,59,1-151-006-9805,Nader and Sons,907,Christyburgh
Arvilla,46,371.729.6264,Labadie-Labadie,59610,Hammestown
Kelton,48,(875) 137-6934,Barrows Inc,323,Port Annie
Paula,21,1-063-960-6017,Oberbrunner Oberbrunner and Oberbrunner,4083,Fridaview
Turner,31,267-801-8155,O'Keefe-O'Keefe,58556,Port Lamontmouth
Araceli,50,274-711-5696,Haag Haag and Haag,8650,Nicolastown
Antonia,68,1-820-604-9619,Waelchi Inc,2660,New Hobarthaven
